<?xml version="1.0" encoding="UTF-8" standalone="no"?>
<!-- Created with Inkscape (http://www.inkscape.org/) -->

<svg
   width="364.30939"
   height="412.32019"
   viewBox="0 0 96.390187 109.09305"
   version="1.1"
   id="svg1"
   xml:space="preserve"
   xmlns="http://www.w3.org/2000/svg"
   xmlns:svg="http://www.w3.org/2000/svg"><defs
     id="defs1" /><g
     id="layer1"
     transform="translate(-17.47781,-8.1974325)"><path
       id="path18-2"
       style="color:#000000;fill:#0fce00;stroke-linecap:round;stroke-linejoin:round;-inkscape-stroke:none;paint-order:stroke fill markers"
       d="m 66.143953,117.29048 0.420129,-0.72657 4.060217,-7.02541 h -2.8592 L 67.661245,63.081907 c -0.0087,-0.874789 -0.670129,-1.615821 -1.536029,-1.594941 -0.836297,0.02017 -1.480531,0.640765 -1.46925,1.594941 l -0.05202,46.456593 h -2.942409 z" /><path
       style="opacity:1;fill:#121212;fill-opacity:1;stroke-width:0.655637;stroke-linecap:round;stroke-linejoin:round;paint-order:stroke fill markers"
       d="M 17.549,63.124 17.57878,70.986201 66.124163,94.96358 113.82131,71.10459 113.868,63.138 Z"
       id="path2" /><path
       style="opacity:1;fill:#252525;fill-opacity:1;stroke-width:0.655637;stroke-linecap:round;stroke-linejoin:round;paint-order:stroke fill markers"
       d="M 17.549,63.124 65.763142,38.876488 113.868,63.138 65.954123,87.186769 Z"
       id="path1" /><ellipse
       style="opacity:1;fill:#020202;fill-opacity:1;stroke-width:0.655637;stroke-linecap:round;stroke-linejoin:round;paint-order:stroke fill markers"
       id="path3"
       cx="66.032768"
       cy="43.744717"
       rx="2.5241947"
       ry="1.560038" /><path
       id="path13"
       style="color:#000000;fill:#ff0000;stroke-linecap:round;stroke-linejoin:round;-inkscape-stroke:none;paint-order:stroke fill markers"
       d="m 99.100653,38.608023 3.610357,1.679211 -81.118272,45.426277 -3.303928,-1.441259 -0.811,5.796611 c 4.90449,-0.275644 4.908354,-0.269336 10.569497,-0.951657 l -3.51176,-1.849435 81.454323,-45.418104 3.06274,1.608223 0.32847,-5.754462 c -5.07705,0.363133 -5.1848,0.244202 -10.280427,0.904595 z" /><path
       id="path13-6"
       style="color:#000000;fill:#0001ff;fill-opacity:1;stroke-linecap:round;stroke-linejoin:round;-inkscape-stroke:none;paint-order:stroke fill markers"
       d="m 30.99205,37.289848 -3.610356,1.679211 81.118276,45.426278 3.30393,-1.44126 0.811,5.79661 c -4.90449,-0.27564 -4.90836,-0.26933 -10.5695,-0.95166 l 3.51176,-1.84943 -81.454326,-45.418105 -3.06274,1.608223 -0.32847,-5.754462 c 5.07705,0.363133 5.1848,0.244202 10.280426,0.904595 z" /><path
       id="path18"
       style="color:#000000;fill:#0fce00;stroke-linecap:round;stroke-linejoin:round;-inkscape-stroke:none;paint-order:stroke fill markers"
       d="m 66.078137,8.1974325 -0.420129,0.7265706 -4.060217,7.0254109 h 2.8592 l 0.103854,46.456596 c 0.0087,0.874789 0.670129,1.615821 1.536029,1.594941 0.836297,-0.02017 1.480531,-0.640765 1.46925,-1.594941 l 0.05202,-46.456596 h 2.942409 z" /></g></svg>
